oslat V 2.30
Total runtime: 		600 seconds
Thread priority: 	default
CPU list: 		2,3,16-18
CPU for main thread: 	1
Workload: 		no
Workload mem: 		0 (KiB)
Preheat cores: 		5

Pre-heat for 1 seconds...
Test starts...
Test completed.

        Core:	 2 3 16 17 18
Counter Freq:	 3846 3846 3846 3846 3846 (Mhz)
    001 (us):	 31892078597 31891946157 31892017384 31891987160 31892012059
    002 (us):	 732 714 716 710 699
    003 (us):	 48 39 100 61 55
    004 (us):	 13 17 31 33 26
    005 (us):	 120 122 261 262 263
    006 (us):	 82 93 30 56 38
    007 (us):	 224 207 261 285 271
    008 (us):	 58 61 64 60 57
    009 (us):	 56 61 32 12 32
    010 (us):	 57 51 51 37 61
    011 (us):	 23 13 62 68 73
    012 (us):	 42 31 105 103 104
    013 (us):	 29 35 86 78 76
    014 (us):	 54 53 74 74 56
    015 (us):	 51 49 46 47 45
    016 (us):	 42 45 22 23 24
    017 (us):	 28 30 17 15 16
    018 (us):	 71 49 21 20 13
    019 (us):	 55 61 15 13 17
    020 (us):	 21 44 6 3 9
    021 (us):	 10 11 1 5 3
    022 (us):	 8 20 0 1 0
    023 (us):	 20 22 1 8 8
    024 (us):	 29 24 33 45 57
    025 (us):	 39 40 89 77 78
    026 (us):	 38 24 35 24 10
    027 (us):	 11 17 2 4 3
    028 (us):	 13 17 2 0 1
    029 (us):	 7 4 1 0 0
    030 (us):	 2 1 0 0 1
    031 (us):	 4 0 0 1 0
    032 (us):	 6 4 11 14 11 (including overflows)
     Minimum:	 1 1 1 1 1 (us)
     Average:	 1.000 1.000 1.000 1.000 1.000 (us)
     Maximum:	 81 76 97 89 78 (us)
     Max-Min:	 80 75 96 88 77 (us)
    Duration:	 599.724 599.724 599.724 599.724 599.724 (sec)

